<?xml version="1.0" encoding="UTF-8"?>
<svg width="500px" height="500px" viewBox="0 0 500 500" version="1.1" xmlns="http://www.w3.org/2000/svg" xmlns:xlink="http://www.w3.org/1999/xlink">
    <!-- Generator: Sketch 46.1 (44463) - http://www.bohemiancoding.com/sketch -->
    <title>uE00E-delete</title>
    <desc>Created with Sketch.</desc>
    <defs></defs>
    <g id="Iconfont" stroke="none" stroke-width="1" fill="none" fill-rule="evenodd">
        <g id="icon/delete" fill="#333333">
            <polygon id="icon" points="354.166667 145.833333 257.354167 242.645833 160.583333 145.833333 145.833333 160.5625 242.645833 257.375 145.833333 354.166667 160.583333 368.895833 257.354167 272.104167 354.166667 368.895833 368.895833 354.166667 272.104167 257.375 368.895833 160.5625"></polygon>
        </g>
        <g id="slides" transform="translate(-6500.000000, 0.000000)"></g>
    </g>
</svg>