<?xml version="1.0" encoding="UTF-8"?>
<svg width="500px" height="500px" viewBox="0 0 500 500" version="1.1" xmlns="http://www.w3.org/2000/svg" xmlns:xlink="http://www.w3.org/1999/xlink">
    <!-- Generator: Sketch 46 (44423) - http://www.bohemiancoding.com/sketch -->
    <title>uE002-back</title>
    <desc>Created with Sketch.</desc>
    <defs></defs>
    <g id="Iconfont" stroke="none" stroke-width="1" fill="none" fill-rule="evenodd">
        <g id="icon/arrow-left-white" fill="#FFFFFF">
            <polygon id="Fill-2" points="278.208333 368.895833 166.666667 257.354167 278.208333 145.833333 292.9375 160.5625 196.145833 257.354167 292.9375 354.166667"></polygon>
        </g>
        <g id="slides" transform="translate(-500.000000, 0.000000)"></g>
    </g>
</svg>