<?xml version="1.0" encoding="UTF-8"?>
<svg width="500px" height="500px" viewBox="0 0 500 500" version="1.1" xmlns="http://www.w3.org/2000/svg" xmlns:xlink="http://www.w3.org/1999/xlink">
    <!-- Generator: Sketch 46 (44423) - http://www.bohemiancoding.com/sketch -->
    <title>uE00A-twitter</title>
    <desc>Created with Sketch.</desc>
    <defs></defs>
    <g id="Iconfont" stroke="none" stroke-width="1" fill="none" fill-rule="evenodd">
        <g id="icon/twitter/accent" stroke="#979797" fill="#999999">
            <path d="M500,94.9291667 C481.604167,103.095833 461.833333,108.616667 441.083333,111.075 C462.25,98.3875 478.5625,78.3041667 486.1875,54.325 C466.395833,66.0958333 444.4375,74.6375 421.0625,79.2416667 C402.354167,59.2833333 375.666667,46.825 346.166667,46.825 C289.520833,46.825 243.583333,92.7625 243.583333,149.408333 C243.583333,157.470833 244.5,165.283333 246.229167,172.783333 C161,168.533333 85.4166667,127.679167 34.7916667,65.5958333 C25.9791667,80.7833333 20.9166667,98.3875 20.9166667,117.179167 C20.9166667,152.7625 39.0416667,184.179167 66.5416667,202.575 C49.7291667,202.054167 33.9166667,197.408333 20.0833333,189.720833 L20.0833333,191.0125 C20.0833333,240.720833 55.4583333,282.179167 102.375,291.595833 C93.7708333,293.95 84.6875,295.220833 75.3333333,295.220833 C68.75,295.220833 62.2916667,294.575 56.0416667,293.345833 C69.0833333,334.116667 106.979167,363.7625 151.854167,364.616667 C116.770833,392.1375 72.5416667,408.533333 24.4375,408.533333 C16.1875,408.533333 8.02083333,408.0125 0,407.095833 C45.3958333,436.179167 99.3125,453.158333 157.270833,453.158333 C345.9375,453.158333 449.125,296.866667 449.125,161.304167 C449.125,156.8875 449,152.45 448.833333,148.0125 C468.833333,133.575 486.229167,115.5125 500,94.9291667" id="Fill-2"></path>
        </g>
        <g id="slides" transform="translate(-4500.000000, 0.000000)"></g>
    </g>
</svg>