<?xml version="1.0" encoding="UTF-8"?>
<svg width="500px" height="500px" viewBox="0 0 500 500" version="1.1" xmlns="http://www.w3.org/2000/svg" xmlns:xlink="http://www.w3.org/1999/xlink">
    <!-- Generator: Sketch 46 (44423) - http://www.bohemiancoding.com/sketch -->
    <title>uE00B-facebook</title>
    <desc>Created with Sketch.</desc>
    <defs></defs>
    <g id="Iconfont" stroke="none" stroke-width="1" fill="none" fill-rule="evenodd">
        <g id="icon/facebook/accent" fill="#999999">
            <path d="M365.275,271.93125 L376.733333,183.035417 L288.7125,183.035417 L288.7125,126.30625 C288.7125,100.55625 295.9,83.0354167 332.775,83.0354167 L379.816667,82.99375 L379.816667,3.49375 C371.7125,2.41041667 343.795833,-0.00625 311.233333,-0.00625 C243.379167,-0.00625 196.941667,41.43125 196.941667,117.49375 L196.941667,183.035417 L120.170833,183.035417 L120.170833,271.93125 L196.941667,271.93125 L196.941667,499.99375 L288.7125,499.99375 L288.7125,271.93125 L365.275,271.93125 Z" id="Fill-2"></path>
        </g>
        <g id="slides" transform="translate(-5000.000000, 0.000000)"></g>
    </g>
</svg>